^C:\USERS\100458273\SOURCE\REPOS\DRAGDROPPLUGIN\DRAGDROPPLUGIN\X64\DEBUG\ASSIGN.OBJ|C:\USERS\100458273\SOURCE\REPOS\DRAGDROPPLUGIN\DRAGDROPPLUGIN\X64\DEBUG\GRID.OBJ|C:\USERS\100458273\SOURCE\REPOS\DRAGDROPPLUGIN\DRAGDROPPLUGIN\X64\DEBUG\WORLD.OBJ|C:\USERS\100458273\SOURCE\REPOS\DRAGDROPPLUGIN\DRAGDROPPLUGIN\X64\DEBUG\WRAPPER.OBJ
C:\WINDOWS\GLOBALIZATION\SORTING\SORTDEFAULT.NLS
C:\PROGRAM FILES (X86)\WINDOWS KITS\10\LIB\10.0.16299.0\UM\X64\KERNEL32.LIB
C:\PROGRAM FILES (X86)\WINDOWS KITS\10\LIB\10.0.16299.0\UM\X64\USER32.LIB
C:\PROGRAM FILES (X86)\WINDOWS KITS\10\LIB\10.0.16299.0\UM\X64\GDI32.LIB
C:\PROGRAM FILES (X86)\WINDOWS KITS\10\LIB\10.0.16299.0\UM\X64\WINSPOOL.LIB
C:\PROGRAM FILES (X86)\WINDOWS KITS\10\LIB\10.0.16299.0\UM\X64\COMDLG32.LIB
C:\PROGRAM FILES (X86)\WINDOWS KITS\10\LIB\10.0.16299.0\UM\X64\ADVAPI32.LIB
C:\PROGRAM FILES (X86)\WINDOWS KITS\10\LIB\10.0.16299.0\UM\X64\SHELL32.LIB
C:\PROGRAM FILES (X86)\WINDOWS KITS\10\LIB\10.0.16299.0\UM\X64\OLE32.LIB
C:\PROGRAM FILES (X86)\WINDOWS KITS\10\LIB\10.0.16299.0\UM\X64\OLEAUT32.LIB
C:\PROGRAM FILES (X86)\WINDOWS KITS\10\LIB\10.0.16299.0\UM\X64\UUID.LIB
C:\PROGRAM FILES (X86)\WINDOWS KITS\10\LIB\10.0.16299.0\UM\X64\ODBC32.LIB
C:\PROGRAM FILES (X86)\WINDOWS KITS\10\LIB\10.0.16299.0\UM\X64\ODBCCP32.LIB
C:\USERS\100458273\SOURCE\REPOS\DRAGDROPPLUGIN\DRAGDROPPLUGIN\X64\DEBUG\ASSIGN.OBJ
C:\USERS\100458273\SOURCE\REPOS\DRAGDROPPLUGIN\DRAGDROPPLUGIN\X64\DEBUG\GRID.OBJ
C:\USERS\100458273\SOURCE\REPOS\DRAGDROPPLUGIN\DRAGDROPPLUGIN\X64\DEBUG\WORLD.OBJ
C:\USERS\100458273\SOURCE\REPOS\DRAGDROPPLUGIN\DRAGDROPPLUGIN\X64\DEBUG\WRAPPER.OBJ
C:\WINDOWS\SYSTEM32\TZRES.DLL
C:\PROGRAM FILES (X86)\MICROSOFT VISUAL STUDIO\2017\PROFESSIONAL\VC\TOOLS\MSVC\14.12.25827\LIB\X64\MSVCPRTD.LIB
C:\PROGRAM FILES (X86)\MICROSOFT VISUAL STUDIO\2017\PROFESSIONAL\VC\TOOLS\MSVC\14.12.25827\LIB\X64\MSVCRTD.LIB
C:\PROGRAM FILES (X86)\MICROSOFT VISUAL STUDIO\2017\PROFESSIONAL\VC\TOOLS\MSVC\14.12.25827\LIB\X64\OLDNAMES.LIB
C:\PROGRAM FILES (X86)\MICROSOFT VISUAL STUDIO\2017\PROFESSIONAL\VC\TOOLS\MSVC\14.12.25827\LIB\X64\VCRUNTIMED.LIB
C:\PROGRAM FILES (X86)\WINDOWS KITS\10\LIB\10.0.16299.0\UCRT\X64\UCRTD.LIB
